141 71
0 0 0 0 0 0 1 2 3 4 5 6 7 8 9 10 11 3 12 13 14 15 14 16 9 10 11 3 17 18 19 20 21 8 22 3 23 0 0 0 0 0 0 0 0 0 0 0 0 0 0 0 0 0 0 0 0 0 0 0 0 0 0 0 0 0 0 0 0 0 0 24 25 26 27 28 29 30 31 32 33 34 35 36 37 38 37 38 39 40 41 42 43 44 45 46 47 48 49 50 51 52 53 54 55 56 57 58 59 60 0 47 0 0 0 0 0 0 0 0 0 0 0 0 0 0 0 0 0 0 0 0 0 0 0 0 0 61 62 63 64
0 0 0 0 0 65 66 67 68 69 70 71 72 73 74 75 26 76 16 77 78 79 73 80 74 75 26 76 81 82 83 20 21 73 84 76 85 23 0 0 0 0 0 0 0 0 0 0 0 0 0 0 0 0 0 0 0 0 0 0 0 0 0 0 0 0 0 0 0 86 87 88 89 73 90 91 92 93 94 95 96 97 57 98 99 100 101 102 103 99 100 101 57 58 97 104 47 105 51 106 52 51 107 108 109 110 111 55 43 112 113 47 0 0 0 0 0 0 0 0 0 0 0 0 0 0 0 0 0 0 0 0 0 0 0 0 0 0 0 114 115
0 0 0 0 2 116 117 118 119 120 121 6 7 3 4 5 73 73 80 122 123 124 84 82 80 122 73 73 125 126 127 71 72 119 120 128 129 130 22 3 23 0 0 0 0 0 0 0 131 0 0 0 0 0 0 0 0 0 0 0 0 0 0 0 0 0 0 0 24 25 74 75 26 132 27 133 134 135 136 137 138 139 136 140 141 142 143 143 144 141 142 143 56 145 146 147 47 52 49 50 51 148 149 150 151 152 110 111 153 154 26 47 113 0 0 0 0 0 0 0 0 0 0 0 0 0 0 0 0 0 0 0 0 0 0 0 0 0 155 156 157
0 0 0 1 158 159 160 161 162 75 26 71 72 68 69 163 119 120 128 164 165 166 167 120 128 164 119 120 168 169 167 170 171 172 173 174 175 176 129 130 85 23 0 0 0 0 0 0 131 2 0 0 0 0 0 0 0 0 0 0 0 0 0 0 0 0 0 87 88 89 177 178 73 100 135 136 140 100 179 180 181 182 183 46 138 139 184 185 186 187 188 111 153 189 190 191 47 192 193 194 195 196 197 110 198 199 200 201 143 56 145 47 59 0 0 0 0 0 0 0 0 0 0 0 0 0 0 0 0 0 0 0 0 0 0 0 0 17 17 18 202
0 0 158 203 204 205 206 207 208 178 73 6 7 119 120 121 172 173 174 163 172 163 172 173 174 163 174 127 172 163 172 209 210 67 68 69 174 211 175 176 212 129 213 214 0 0 0 215 216 217 218 219 0 0 0 0 0 0 0 0 0 0 0 0 0 113 220 221 113 0 221 222 223 224 90 179 132 27 28 29 30 31 32 33 225 226 227 226 228 229 230 231 232 233 234 235 47 236 211 237 238 239 240 52 51 226 151 152 111 153 189 47 43 44 45 114 0 0 0 0 0 0 0 0 0 0 0 0 0 0 0 0 0 114 115 39 40 0 0 0 0
2 116 117 241 242 243 244 74 178 245 246 71 72 162 75 26 67 68 69 69 247 248 249 250 251 168 169 167 252 253 254 6 7 118 119 120 110 163 255 256 257 129 258 23 0 0 2 259 47 260 261 262 0 0 0 263 221 0 264 265 0 0 0 0 0 266 24 221 0 0 264 267 268 269 270 271 224 90 91 92 93 94 95 96 230 272 230 272 273 274 275 55 189 276 277 278 47 279 48 83 280 281 282 283 284 107 198 199 285 149 150 47 286 154 26 287 59 114 0 0 0 0 0 0 0 0 0 0 0 0 0 0 61 62 63 64 288 0 0 0 0
244 289 244 290 291 292 293 177 292 293 294 295 296 17 161 162 118 119 120 249 297 298 299 300 163 248 249 172 301 184 302 71 72 172 173 174 52 173 174 173 174 8 22 3 3 23 0 264 131 303 304 305 217 0 0 113 60 113 259 306 0 0 0 0 0 307 113 0 0 0 24 308 159 309 310 311 312 313 133 134 135 136 137 138 139 136 140 105 154 26 314 315 316 148 149 150 47 317 105 154 26 314 315 316 148 149 150 107 318 319 320 47 321 153 189 190 322 287 114 0 0 0 323 324 114 0 0 0 0 0 0 0 0 0 114 115 325 0 0 0 0
66 161 66 177 326 327 245 243 327 245 328 329 330 331 331 243 161 162 75 332 333 334 335 336 248 249 332 73 337 252 338 20 21 67 68 69 5 255 339 340 52 341 129 76 85 342 343 259 216 344 345 346 215 2 0 0 0 0 0 0 0 0 0 0 113 113 62 0 0 0 203 204 205 347 311 312 348 308 309 140 349 350 351 352 353 184 168 354 202 355 226 227 226 356 357 358 47 84 354 202 355 120 359 360 356 357 361 362 363 364 365 47 366 232 105 154 26 367 328 368 114 287 114 0 323 369 114 0 0 0 0 0 114 370 371 372 125 373 0 0 0
374 116 267 159 375 376 377 378 74 268 269 6 7 289 289 161 161 17 18 19 379 380 381 382 73 332 301 184 302 383 384 295 296 118 119 120 70 385 356 386 302 211 175 341 212 22 3 3 47 387 304 305 217 218 0 0 0 0 0 0 0 0 0 0 263 221 0 0 0 388 389 390 391 392 0 113 221 204 393 135 394 358 385 395 394 358 385 396 226 227 272 230 272 253 254 397 47 398 396 399 198 50 240 52 253 400 401 47 5 129 402 47 403 189 354 202 355 404 405 406 367 44 45 114 17 287 407 0 0 0 114 17 17 178 81 82 168 408 0 0 0
354 66 409 410 411 412 413 414 308 159 160 415 416 161 327 245 328 81 82 83 417 418 419 420 421 422 423 424 425 426 427 428 429 430 431 432 119 184 302 433 68 69 5 256 73 84 76 85 131 158 434 435 436 262 437 0 0 0 0 0 0 0 113 438 439 0 0 264 438 331 440 441 442 221 0 0 388 389 268 443 444 445 446 447 448 449 450 167 272 230 272 451 252 452 453 454 47 455 456 457 458 459 460 461 237 238 68 47 70 385 356 47 462 463 253 400 464 465 466 467 468 322 114 369 287 368 369 407 114 0 469 178 178 26 190 126 470 471 472 0 0
473 2 1 474 475 476 477 478 204 205 206 20 21 479 74 268 269 119 126 74 480 481 482 483 484 485 486 487 488 489 490 6 7 491 66 161 66 118 119 120 119 120 70 173 211 175 492 493 216 304 305 494 304 305 217 0 0 0 0 0 0 0 263 221 0 0 438 389 495 496 497 498 438 0 0 0 86 499 159 500 501 502 420 421 422 423 503 425 504 427 119 120 202 505 506 396 47 507 508 509 510 226 511 322 83 280 119 47 121 252 253 47 512 513 237 238 68 514 515 48 83 280 406 367 44 45 17 406 17 26 467 83 516 105 154 169 385 517 518 0 0
519 158 0 0 0 0 65 520 521 522 523 524 525 374 479 161 526 527 528 529 530 531 532 533 534 535 536 537 538 539 540 20 541 542 374 116 267 430 431 238 119 120 543 544 282 545 256 257 47 546 547 548 345 346 215 214 0 0 0 0 263 221 0 264 0 0 389 390 549 550 551 552 113 0 0 553 438 308 205 554 555 556 483 484 485 486 487 557 489 490 558 559 130 543 544 560 47 561 562 563 564 404 405 406 367 161 162 47 26 301 184 47 395 565 566 567 568 569 464 105 154 26 467 468 154 468 322 570 468 355 400 154 168 163 172 163 172 471 518 472 0
571 304 0 0 0 0 0 572 573 574 575 576 72 577 374 479 578 579 580 581 582 51 338 110 198 50 583 584 585 586 587 71 72 212 354 66 409 2 0 2 431 588 314 315 589 590 173 174 591 592 593 571 304 305 217 218 219 2 2 594 113 60 113 259 0 311 312 595 596 597 598 311 113 0 438 389 495 204 353 599 600 532 601 534 535 602 603 604 605 606 607 608 609 610 611 612 613 614 615 616 617 465 466 467 468 618 43 47 619 337 252 47 620 621 622 623 624 625 626 354 202 355 627 628 154 189 190 126 68 69 70 163 172 163 172 69 70 471 518 518 0
629 630 631 0 0 0 0 0 632 633 634 635 636 633 577 637 638 639 640 641 642 643 340 52 51 644 645 168 646 647 648 170 171 649 473 2 1 0 0 0 2 519 118 119 120 341 492 650 651 652 653 654 655 656 657 658 659 660 661 662 663 0 664 665 113 666 348 667 668 669 670 671 670 672 673 674 675 676 677 678 679 338 680 198 50 681 682 683 684 685 686 687 688 689 690 691 692 693 230 694 127 514 515 627 628 695 618 47 245 696 695 47 697 698 699 700 701 702 703 704 569 464 493 705 400 105 154 169 169 167 706 676 707 708 709 710 708 0 0 0 0
711 469 712 713 0 0 0 0 714 715 716 717 718 716 719 720 721 722 723 724 725 726 727 728 684 685 686 729 692 730 731 20 21 588 519 158 0 1 158 519 473 543 544 732 733 734 735 736 84 76 737 738 268 739 740 593 741 742 743 178 744 214 745 746 747 748 749 750 751 634 752 753 754 755 756 757 758 759 52 760 643 340 52 51 761 645 762 763 764 765 766 767 768 769 770 771 772 773 774 775 776 569 464 493 705 777 43 47 778 779 695 47 780 781 782 783 784 785 786 787 788 789 790 791 792 568 163 172 163 172 793 794 17 795 406 17 570 516 0 0 0
76 796 797 798 799 0 0 0 800 801 802 803 804 805 806 807 808 809 722 810 52 811 812 813 814 815 558 812 807 558 812 71 72 238 633 577 1 0 1 158 633 238 590 500 501 502 420 341 175 176 816 817 818 819 84 76 85 820 821 822 823 594 824 825 826 749 750 827 828 829 830 831 831 832 833 50 52 281 834 725 726 835 810 52 396 399 836 837 838 192 193 194 195 196 197 110 198 230 272 839 840 841 732 733 734 842 843 47 844 695 618 47 845 846 847 119 848 849 850 851 852 691 853 854 855 856 857 856 857 858 857 856 692 859 570 178 516 163 172 0 0
860 861 862 863 864 0 0 0 0 0 865 866 867 868 869 870 871 872 49 638 51 873 874 875 558 876 810 52 877 485 878 170 171 280 879 880 879 880 879 880 26 314 315 554 555 556 483 881 882 883 884 885 886 887 175 176 493 888 889 890 891 892 893 894 749 750 178 0 0 827 830 895 896 832 833 106 52 51 106 52 897 682 898 899 691 856 856 692 859 236 211 237 238 239 240 52 51 226 900 901 902 903 904 841 230 272 466 47 468 618 43 47 905 906 907 908 909 910 911 912 909 910 911 913 914 915 916 516 917 918 917 795 406 919 238 68 69 70 385 356 920
921 922 923 924 925 221 0 0 0 0 926 927 928 929 930 931 932 728 933 684 685 686 687 692 859 814 934 935 875 936 558 20 21 26 314 315 168 154 937 119 185 938 939 599 600 532 601 881 421 940 941 942 943 421 545 256 257 944 932 684 685 945 946 686 946 686 946 686 856 692 830 947 831 832 833 50 51 49 50 51 873 286 948 558 876 810 249 250 949 279 48 83 280 281 282 950 951 107 950 951 952 953 954 732 733 734 842 47 466 467 331 47 328 955 956 246 957 958 959 960 154 956 961 962 963 964 965 966 967 968 969 970 971 83 280 119 120 121 252 253 795
972 973 974 975 976 977 978 221 0 0 979 885 886 711 980 216 981 982 396 451 983 984 878 985 48 83 85 986 987 988 989 990 991 992 993 994 558 995 185 119 996 997 998 999 679 338 563 535 563 881 1000 1001 1002 484 881 1000 1003 386 763 1004 258 1005 1006 1007 220 221 324 260 1008 1009 1010 87 88 832 833 51 51 106 52 811 1011 627 406 1012 814 934 299 300 584 317 105 154 26 280 361 362 363 950 150 185 938 939 1013 904 1014 1015 1016 47 515 627 496 47 778 292 293 294 1017 1018 1019 11 1020 293 1021 1022 1023 1024 955 956 1025 1026 1027 969 970 469 161 162 75 26 301 795 323
1028 28 289 244 633 1029 259 23 1030 633 1031 1032 1033 76 1034 47 1035 1036 485 878 558 812 643 485 985 154 937 82 807 1037 1038 1039 1040 1041 1042 240 52 1043 1044 1045 1046 1047 1048 1049 1050 1051 50 1052 534 535 536 170 1053 1054 1055 1045 1055 1045 1056 1057 1058 1059 410 1060 594 264 221 303 12 1061 613 12 13 1062 1063 811 1064 396 451 983 984 878 985 48 83 85 1065 1066 117 84 354 202 355 120 359 47 356 357 358 878 1067 451 252 954 1068 1069 1070 47 433 950 275 47 1071 327 245 328 1072 1073 499 331 243 245 1074 1075 955 956 292 293 243 1076 122 123 795 406 618 43 1077 619 795 323 324
221 324 161 259 23 1078 1079 1080 1081 1082 542 1083 1084 980 1085 47 1086 1087 936 558 876 1088 815 1089 485 995 1090 76 47 1091 1092 170 171 1093 1094 1095 358 1096 1097 1098 1099 1100 1101 1102 1103 563 564 1104 176 1064 119 20 21 727 856 692 859 1105 1106 83 85 1107 1108 342 1060 259 23 344 16 1031 1109 1110 1111 1112 1112 1112 1113 1114 1115 558 812 106 52 811 1011 106 52 811 1011 398 396 399 198 50 240 47 253 254 397 558 876 1116 1117 1013 1118 1119 48 47 1120 150 840 47 1121 1122 85 331 243 245 1074 1123 1123 778 17 17 292 293 327 245 1123 1124 1125 9 17 570 695 618 243 323 324 114 0
1126 1127 116 117 1080 918 496 1128 1129 1130 1131 20 21 1034 1132 837 1133 1036 50 1134 252 1135 948 558 1089 1136 1137 1138 47 1139 1140 20 21 1141 1142 1143 1144 119 584 1120 1145 1146 1147 1148 1149 1150 1151 1152 1153 1154 672 672 673 674 672 672 1155 1156 1157 14 15 82 1105 1106 1158 1079 1080 387 80 542 1159 1160 737 738 268 1161 1162 1163 1164 485 176 396 451 983 984 396 451 983 984 1165 1166 1167 1168 1169 52 47 385 302 433 451 252 1170 1171 1103 563 197 110 47 283 283 1172 47 245 328 1173 860 861 862 863 864 778 1174 331 243 327 245 955 17 17 1175 1176 1034 711 1177 1125 324 114 0 0 0 0
1178 377 378 304 1179 1078 1180 929 1181 1182 1183 1184 992 1185 1186 1187 1188 1189 1190 350 449 450 451 983 984 878 985 1191 47 1192 1193 1194 1195 1141 1196 1197 1198 1199 73 1200 1051 50 451 1170 1103 563 484 485 1201 1202 754 755 756 757 1203 1204 1205 1206 1207 78 79 1208 1209 1210 1211 496 1212 1213 1214 1131 1215 1216 1217 1218 1219 159 1220 1221 1222 252 1135 948 558 1089 1136 1137 1138 1223 1139 1224 1225 1226 1227 1228 1229 837 1230 584 1120 119 120 1231 1232 1149 1150 240 52 1233 254 397 284 47 85 331 1234 921 922 923 924 925 1122 292 955 956 1123 1123 292 293 324 1235 1236 1237 1238 9 17 323 324 0 0 0 0
412 413 414 1239 1240 1241 1034 711 980 1242 1243 1244 1041 1042 1245 68 69 1246 301 727 851 728 933 684 685 686 692 859 47 1247 1248 1249 1250 1141 1240 879 880 1251 1252 1253 1003 1120 1051 50 1153 1254 1154 1154 1154 1255 559 0 0 879 116 117 1256 1257 1258 1259 1090 411 412 413 1260 1180 929 1261 637 1262 1263 1264 637 1265 1266 205 1267 1268 1269 1270 1268 1269 1270 1268 1269 1270 1268 1269 1270 1268 1269 1270 1271 1272 673 1273 1272 673 1274 710 708 709 710 708 709 709 710 709 563 563 197 47 706 676 707 1275 1272 673 674 1276 1277 1278 292 17 17 1238 327 245 9 1279 1280 1281 323 17 17 879 1282 1238 114 0 0
476 477 478 76 1034 918 1283 76 1034 711 331 6 7 1284 118 1285 1286 1036 252 253 254 1287 1288 876 1289 1290 1047 1048 47 406 1291 428 429 439 1292 1293 293 499 1294 1295 1296 1297 1298 1299 1300 1301 1302 1303 132 1301 1304 0 0 1284 1305 1306 1307 1308 1309 1310 81 1311 476 477 1312 1034 711 980 1313 1314 1315 223 1316 1317 1318 1319 961 357 356 357 358 878 558 812 643 1320 1321 1322 1247 1248 1323 1077 1324 755 756 1325 755 756 1326 1003 386 226 185 1327 1328 315 1327 1328 185 1327 840 47 1329 1330 322 1331 755 756 757 1332 918 293 327 245 9 323 1238 323 17 1333 1334 81 711 178 17 570 695 323 324 1335 28
1336 116 76 637 1337 1338 3 637 1339 1340 1341 71 72 1340 1342 1343 1344 1345 301 184 302 433 451 252 1135 1099 1100 1101 47 467 1346 170 171 1347 1348 203 1349 1350 1351 1352 1353 1296 1354 1354 837 1202 1355 1356 1357 1202 1358 0 0 1359 823 1034 711 879 1360 1361 971 17 570 1280 1362 1283 76 1363 1364 331 1365 268 269 1366 1367 964 1368 627 1368 252 120 558 876 1088 815 1089 1369 627 406 1291 1370 1371 1372 1373 1374 1375 1376 1377 1378 1296 1297 1298 1299 1379 1380 359 1379 1380 359 185 1327 47 1075 1381 410 1382 1383 1318 1075 1384 968 243 114 323 1238 323 323 17 577 81 711 178 81 1385 711 1177 1125 695 618 879 1282
178 74 75 117 1386 1387 116 117 1386 1388 86 20 21 1034 1389 1390 1391 1392 1393 252 120 1394 301 584 1395 1396 1397 1398 47 627 1399 170 171 265 388 1400 1401 1402 727 683 684 685 686 687 692 859 859 33 1403 1404 1405 0 0 823 1284 1283 76 1406 1407 1408 1409 1410 87 88 1340 3 1411 1412 1413 1414 1415 159 160 20 21 331 965 1416 965 1368 433 451 252 1135 948 558 1417 1418 467 1346 1419 1420 1421 1422 1423 1424 1425 1426 1427 1378 1428 202 1429 776 1430 240 52 253 254 397 1431 47 1432 1433 1434 342 885 886 1432 1433 1241 13 495 496 323 17 114 1435 1436 1437 1438 1439 1440 810 1441 496 1442 1173 860 861 862
1443 1444 1445 1446 1447 918 1448 1107 1108 1449 801 1450 1451 1284 1452 1453 1454 918 1319 1368 120 1368 627 119 120 1394 1455 119 47 1456 1457 20 21 1141 1458 1459 16 1460 1461 1462 1463 1464 1465 1466 1467 1355 1468 1469 637 1470 1471 0 0 3 1340 3 637 1472 289 1473 1474 1475 1476 28 1477 1478 117 1386 1382 45 204 205 206 71 72 1414 961 119 120 211 252 1479 584 1395 1285 1090 1067 1480 627 1399 1481 1482 265 1483 1484 1485 1486 1487 1488 1489 1490 39 39 40 1225 396 399 1151 1491 1492 1493 47 289 1494 1105 1106 1495 1367 289 1494 1078 637 549 1496 1497 1498 1499 1500 1501 1502 1503 809 211 1504 1505 169 1506 1234 921 922 923
1507 1508 1509 1510 1473 1511 84 82 801 0 0 295 296 1340 1512 1513 1514 1338 964 1515 1516 1517 1416 1515 1516 1517 1518 1519 1520 1521 1522 717 718 1523 1524 1525 1526 1527 1528 1529 1488 1489 1490 39 40 41 42 43 1530 1531 1532 0 0 1488 1533 1488 1489 1490 1534 932 1535 899 1536 899 1537 1538 1539 856 692 859 1540 391 1541 170 171 1319 1319 1542 396 1319 1368 627 119 120 1394 1455 119 1543 1456 1457 1544 1545 1141 1546 1547 1548 1549 1550 1551 306 24 64 64 288 1166 1166 1167 275 1552 1553 1554 47 161 1555 796 221 1383 1318 1075 1381 1029 496 1105 1106 1556 618 1557 932 1558 1559 899 1558 1559 899 1558 1559 1535 899 691 1560 1561
1562 1563 1564 1565 1386 570 1566 1567 1568 0 0 329 330 1034 1569 1447 879 1570 1571 1572 1573 1574 1575 1028 28 289 244 1576 75 1392 1577 1578 1579 1580 1581 212 354 66 409 1582 1551 266 0 1583 310 311 312 390 1584 1585 212 0 0 637 1582 1551 266 24 64 288 1586 1587 117 1105 1588 918 1589 1590 1591 1592 45 1540 1593 71 72 964 961 962 963 964 965 1416 1515 1516 1517 971 1594 1595 1596 1597 1598 1599 1600 1422 1423 1424 1425 1426 0 0 114 115 39 40 1224 1225 1226 840 1601 188 844 47 116 1602 1603 264 1249 1250 1432 1433 1392 161 1604 1605 1606 879 1282 1607 918 1438 1439 1503 809 1505 169 1608 1609 1610 1611 1612 252
1613 1614 1615 1616 1108 1617 801 0 0 0 1618 6 7 1284 1105 1473 1284 1338 1619 1620 1621 1622 1623 221 324 161 66 1624 1625 1392 1626 1627 1628 1629 1630 1631 1074 1583 310 1632 1633 0 0 306 311 312 348 390 1634 390 649 0 0 570 1173 860 861 862 863 864 47 276 1635 1636 570 968 1637 671 671 671 671 1638 1639 1640 1641 1642 1643 1644 964 1574 1574 1575 1028 28 289 244 74 75 1645 34 342 1646 1647 1483 1484 1485 1486 1487 0 61 306 63 64 288 1648 584 317 105 410 1382 1649 47 1650 1651 1652 259 20 21 289 1494 1570 1653 1654 1655 1656 1657 113 1658 968 1503 809 1440 810 1659 1660 1661 1662 1663 1441 1664 1665
1666 1667 1668 1669 976 1670 1671 0 0 0 1672 415 416 1340 117 1673 1340 1570 1674 1675 1676 1677 1678 1679 374 116 117 1624 117 1392 244 71 1680 1681 1682 0 0 306 311 1683 1684 0 0 0 0 0 221 87 32 33 588 0 0 293 1234 921 922 923 924 925 1685 1686 1687 1688 1689 1690 1691 1692 303 12 1693 1694 1695 1696 1697 1698 1699 1619 1620 1621 1622 1623 221 324 161 66 177 1625 1700 1701 637 1702 1703 1546 1547 1548 1549 1550 0 0 0 114 115 325 1704 117 84 354 1434 342 1705 47 161 1555 1706 1079 170 171 1555 796 1392 312 1707 1653 1708 1709 1710 1711 1712 1504 51 226 1713 1608 1609 1441 1664 1665 1505 1659 1660
1714 1715 1716 1717 1718 1078 1719 0 0 801 1720 20 21 1034 1339 879 1034 1392 469 712 713 1721 1722 1723 1724 1725 1726 1624 1726 918 66 170 171 1633 0 0 0 0 0 0 0 0 0 0 0 0 0 1727 1728 390 42 0 0 1729 727 683 684 685 686 687 1730 1731 1732 129 1122 1733 1734 242 344 16 1624 1735 1736 1249 1250 76 1737 1674 798 0 0 1678 1679 86 289 244 74 1738 1739 1336 116 117 1740 1422 1423 1424 1425 1426 0 0 0 62 63 1741 1742 1743 1434 342 1105 1106 1744 1233 1745 1746 1747 496 20 21 1602 1603 1748 637 375 376 1655 378 1106 1749 1712 1750 284 1441 1664 1665 1662 1505 1659 1660 1713 1441 1664
1751 1752 1753 1286 1754 1241 86 1755 1618 1756 1757 1758 1759 1760 1761 1284 1283 918 796 797 798 799 1762 1604 1605 1606 879 1624 1763 1338 117 20 21 1764 1765 0 0 0 0 1766 0 0 0 0 0 0 86 1767 1634 390 1768 0 0 570 293 1769 1770 1771 1772 390 1773 1774 1775 941 967 1776 1777 291 387 80 1624 1735 1778 71 72 1779 469 712 712 0 0 1722 1723 77 161 66 177 66 177 178 74 75 367 1483 1484 1485 1486 1487 0 0 1780 932 1535 899 1558 1559 1535 899 691 856 856 692 859 1781 1782 1180 170 171 1651 1652 1235 303 637 1783 1653 1106 1707 12 1784 1785 1786 1787 1659 1660 1788 1713 1789 901 1664 1665 1659
1790 1791 1792 1793 1794 918 1795 1796 1797 1798 1799 1800 1801 1802 1803 1804 1805 918 1806 1807 1808 221 1809 1654 1655 1656 1657 1624 1285 1570 1285 20 21 1810 1811 1812 0 0 1813 799 1814 1815 0 0 0 0 1816 1817 1818 1819 1820 0 0 293 390 1584 1821 17 570 293 1822 1823 1824 1825 1826 1827 1828 1829 1830 1831 1624 1832 1833 71 72 354 1090 354 1834 798 0 87 88 1727 1606 879 1282 1763 1835 1836 1837 1838 1839 1546 1547 1548 1549 1550 0 0 1840 1841 83 1842 83 1105 1106 1556 1747 496 1843 1586 1844 1240 1556 1034 20 21 1106 1749 1845 1655 1311 1846 1653 478 1655 1847 1279 779 1848 496 1787 1787 50 51 1661 1505 1659 1660 1789
338 110 198 50 1064 1849 1753 1850 1851 1852 802 803 804 805 806 1853 1854 1036 1855 1856 1286 1857 1858 1707 1653 1708 1709 1624 1394 1338 1394 71 72 1859 1860 1861 1633 87 1808 221 39 1862 1863 0 87 88 89 1816 1817 1819 1864 0 0 25 390 1584 1865 1293 293 570 1866 1867 1868 1869 1870 1871 1717 1872 1873 1874 1624 88 1875 1249 1250 1876 1877 1878 1879 354 1653 1880 1881 16 1656 1657 113 1882 207 1283 76 1883 1884 1373 1374 1375 1376 1377 0 0 1885 1340 1783 1570 1783 1604 1605 1606 879 1282 1034 1886 1887 831 1284 1283 71 72 1888 12 1846 1653 1280 1889 1890 1707 1653 593 1712 1891 1028 1892 1168 1168 240 52 1893 1713 1789 901 1491
340 52 51 761 645 1894 443 444 445 1895 1896 1897 1898 1899 1900 1901 1902 1903 1904 1905 1906 1907 1908 1716 1717 1909 1910 1624 1911 1570 76 170 171 1912 1913 1914 1915 1916 1917 1918 1919 1920 1921 1922 1923 1924 1925 1926 1927 1928 1929 0 0 1926 1926 1927 1930 203 25 293 1769 504 1931 1751 1932 1933 1934 1935 1122 1779 1624 1936 1937 71 72 1938 1939 1940 1941 1942 1943 1944 178 937 82 1709 1710 1945 831 178 178 74 75 1422 1423 1424 1425 1426 0 0 0 1293 331 1392 331 1654 1655 1656 1657 113 1283 1946 1947 88 1340 3 170 171 1655 1847 1889 1890 177 1575 1028 311 312 1848 1948 496 312 1949 1950 1950 282 283 284 107 950 275 1552
835 810 52 396 399 1951 500 501 502 420 421 1952 21 183 46 1953 1954 1955 66 1907 1908 1285 1956 1753 1286 1285 1090 1624 1075 1392 1292 209 210 1058 937 971 1957 1958 1959 1960 77 1961 1962 1963 1964 1965 1966 77 1967 1968 1969 0 0 348 310 1583 310 311 312 390 1584 1585 1970 1971 1972 1973 1974 1584 1122 1122 1624 1975 1976 71 72 1977 1978 1979 1980 1981 1982 354 1983 1943 1944 1910 1984 1911 1497 178 74 75 1985 1483 1484 1485 1486 1487 1986 0 0 114 496 1387 496 1707 1653 1708 1709 1710 3 1987 1988 28 1989 116 20 21 1653 593 1990 1991 637 1783 1604 666 348 206 1992 208 1993 1994 1995 1996 1997 1998 1999 1997 1998 1999 2000
2001 399 2002 2003 2004 2005 554 555 556 483 484 1383 1318 46 1090 2006 2007 2008 2009 183 46 1956 2010 1792 2011 1394 81 1624 971 918 1090 832 833 85 2012 2013 0 824 2014 2015 122 2016 2017 0 0 2018 221 1437 2019 2020 2021 0 0 311 2018 306 311 312 348 390 2022 2023 2024 2025 1659 2026 119 52 487 487 1624 2027 2028 20 21 2029 2030 2031 2032 1942 2033 2034 2035 1982 354 1090 2036 932 684 685 684 685 684 1546 1547 1548 1549 1550 1535 899 2037 1730 1496 1392 1496 1497 2038 637 2039 1985 2040 2041 710 708 709 2042 1272 673 674 2043 2044 2045 499 331 1654 496 496 1707 2046 2047 1434 342 2048 2049 2050 360 356 357 358 2051 2052
286 948 558 876 810 2053 599 600 532 601 534 1249 1250 2054 332 2055 2056 2057 2058 46 1090 2059 1471 2034 2060 1895 971 1624 2061 918 971 170 171 937 971 2013 0 0 0 2062 2063 2064 0 0 0 0 1028 2065 1969 2019 1105 0 0 0 0 0 0 0 221 87 2066 2067 2068 1441 1789 2069 1441 878 1516 2070 1624 2071 2072 71 72 2073 1981 2073 952 953 1942 2031 2074 126 127 1980 1835 1836 1837 1835 1836 1837 85 1483 1484 1485 1486 1487 2075 306 311 312 523 918 523 1176 2076 2077 1283 1058 2078 2079 2080 2081 2082 2083 755 756 2084 1718 2085 1434 1434 342 1707 496 1707 1844 2046 1513 1715 410 353 184 360 52 253 254 397 2050 1754
338 52 811 2001 399 1246 678 679 338 421 250 20 21 83 1516 2086 2056 2057 2058 2087 2087 103 83 247 248 2088 2061 1624 937 1036 1285 20 21 2089 2090 2091 0 0 263 242 2092 2093 436 0 0 87 88 77 1437 2094 937 0 0 0 0 0 0 0 0 1727 1728 390 1584 1585 2024 2025 1585 1441 810 52 1624 207 1283 170 171 2095 2058 1437 1122 2073 1981 900 952 2032 2031 971 17 2096 1059 2097 66 177 937 1546 1547 1548 1549 1550 0 0 666 348 575 1387 575 2098 2099 2100 88 85 2101 2102 2103 1636 570 2104 2105 2106 2107 2108 47 1340 2109 1715 2110 387 2111 2112 2046 1447 342 2048 2049 2113 352 353 184 360 356 421 1714
340 51 873 286 2114 2115 2116 399 563 643 300 71 72 122 28 2117 375 376 377 378 2118 2119 247 248 334 2120 2121 1624 2011 1903 2122 1194 1195 2095 2123 2124 2125 87 2126 2094 1437 2127 304 0 1653 1880 1437 2094 2094 937 2012 0 0 0 0 0 0 0 86 1767 1634 390 2022 2023 2068 1441 227 2128 2129 563 1624 1340 3 71 72 2130 2131 2094 2132 2133 2134 2135 211 127 1980 2136 178 937 82 2137 2138 1059 410 1422 1423 1424 1425 1426 0 0 306 2139 2140 918 2140 1280 2097 66 795 2141 1108 2142 795 2141 1108 2143 170 171 1606 12 47 1382 410 2144 293 831 1284 2145 2146 2109 1715 2147 504 2148 395 394 358 254 253 2149 1751
835 2034 2060 1895 643 2150 185 643 2150 2151 1064 20 21 16 77 2152 411 412 413 414 13 2054 332 333 334 2153 2154 1624 2153 1895 2155 1249 1250 2130 2156 2157 1653 2094 2158 2159 2065 1437 2158 2094 2158 1283 1880 2159 937 2160 248 0 0 0 2161 221 87 2162 77 1153 2163 2164 2165 2166 2167 811 399 563 2168 2169 2170 469 2171 20 21 2172 2173 937 2174 2175 2176 119 120 2031 2074 2177 1983 1943 331 2178 499 331 2178 1483 1484 1485 1486 1487 0 0 0 306 1348 2179 1875 312 1575 1028 293 66 177 2144 293 66 177 178 2180 2181 795 410 47 1434 1434 2182 2183 88 410 1382 1733 410 1382 2109 489 2184 447 448 449 360 1151 254 52
198 50 127 1980 726 2185 399 726 2185 1516 83 2186 2187 80 122 1770 1311 476 477 478 77 83 1516 379 380 2188 2189 1624 2188 2189 1286 428 429 2172 2157 1653 1880 2159 2190 1653 1880 2159 2190 2159 2190 66 2191 937 2192 2192 176 0 0 2161 87 1028 87 88 1727 1685 2193 51 2194 1980 380 381 382 1980 1058 1993 2195 2196 989 2197 2198 2199 1186 2200 2201 2202 2054 2073 1981 900 952 953 2035 1982 496 2203 389 588 76 1546 1547 1548 1549 1550 0 0 0 0 0 306 2140 348 1623 221 666 348 2204 2182 2183 2205 117 1315 1952 2206 879 1340 47 1340 2109 1715 1988 28 831 342 2207 1434 342 410 539 230 2208 2209 450 399 1151 360 399
2210 2211 2212 2213 976 2214 2215 2216 2217 937 2218 170 171 183 46 1821 88 695 2219 80 122 188 2220 2221 2222 2223 2224 2225 361 2226 2226 2227 2201 2228 2228 2229 2226 2230 709 2201 2231 2227 2201 2231 2228 2229 2229 2226 2232 937 2012 0 0 425 2233 2231 2231 2231 2201 2234 2235 2236 1611 417 418 419 420 2237 85 2238 1624 1694 1695 1696 1697 1698 2239 2240 1693 77 83 2133 2134 2135 948 2241 2242 2243 2244 354 2203 2203 2245 1422 1423 1424 1425 1426 2246 0 0 0 0 0 306 2247 66 177 748 86 2248 2249 2050 1754 2250 2251 1383 1318 410 1382 47 2144 293 1382 1606 879 1340 1284 1340 2109 1715 1434 342 2252 932 1535 899 2253 691 856 729
52 396 2254 952 952 982 1064 2255 1901 862 863 2180 2181 46 1090 1865 354 202 2256 16 77 83 224 238 119 2257 2258 2259 1356 238 223 2260 83 224 238 2221 2223 2261 2262 2263 2264 2265 2263 2223 2262 2263 2192 2192 2152 2263 2192 0 0 2266 1685 81 1236 81 1236 81 2267 19 1980 585 481 482 483 2268 937 2218 1624 289 2269 2270 2271 831 695 2219 1164 122 2272 2273 2221 2222 2223 2224 2274 2275 2276 248 354 2020 2277 1483 1484 1485 1486 1487 1558 1559 1535 899 691 856 1730 795 348 66 177 77 2278 2279 421 1714 1715 1716 1249 1250 1434 342 47 2182 2183 2142 795 410 1382 410 1382 410 1382 2280 2182 2183 2205 117 2279 421 1714 1715 2281
2002 2003 1064 2151 2282 1036 2283 2284 1987 923 924 1383 1318 2009 238 1987 1064 125 2285 1286 122 188 88 2286 2287 176 2288 2289 2290 2291 2292 2293 2294 88 2286 80 122 83 252 2295 2264 2265 2276 358 2223 2296 2297 2298 709 2201 2231 0 0 2201 2299 2300 17 17 17 17 18 19 2301 484 531 532 533 2268 2302 2303 1624 161 2304 2305 2306 328 203 2307 2308 2309 2310 2311 238 119 2257 2312 2313 2314 2160 900 354 2203 389 1546 1547 1548 1549 1550 2315 0 264 221 303 1586 1679 2140 348 348 2316 1727 2247 2317 2149 1751 1752 1753 1265 1266 879 1340 47 2110 2318 2144 293 1434 342 1434 342 1434 342 2248 2249 2050 2182 1714 495 496 1707 66 2319
2254 952 1064 2320 2321 2322 2323 2324 2325 669 671 671 671 671 671 2326 2327 2328 2329 2330 9 10 628 73 247 248 2088 2061 1356 2331 2294 26 10 628 73 66 177 2332 2065 2333 2334 2334 2003 2335 2336 248 2337 2094 2094 937 2012 0 0 424 126 127 1980 2136 178 81 82 83 2338 126 127 1980 2237 2339 1075 2340 1624 2341 2269 2342 171 831 831 2343 683 684 2344 851 2345 899 691 856 692 2346 2261 2160 248 354 2203 1483 1484 1485 1486 1487 2347 2348 130 23 344 1987 1031 77 1653 1880 1881 16 2349 2350 1970 1971 2351 2352 1383 1318 410 1382 47 28 2204 2182 2183 2205 117 2353 2354 2355 342 2278 2279 421 1714 1715 1843 2356 1443 1444 1445
2291 2119 2357 2358 2359 2360 2361 2362 2363 2364 2365 2366 0 2367 2368 2369 74 2327 289 244 74 75 26 247 248 2153 2120 2121 2370 2371 2372 158 2294 26 499 293 499 331 2373 2373 2333 2334 2374 2336 2261 2264 2297 2159 937 2160 248 0 0 487 169 167 2375 2376 2377 125 996 527 998 2378 585 682 691 2379 856 2380 1624 2381 2382 2383 2384 328 328 2385 879 2386 2387 930 930 1693 2388 396 399 198 2262 125 248 248 354 1546 1547 1548 1549 1550 2389 399 2390 322 2391 2392 850 851 2393 1559 1535 2393 2394 685 686 1730 2395 2396 1249 1250 1434 342 47 2397 2248 2249 2050 1754 2250 2398 864 112 342 342 495 496 1707 2399 1034 2400 1507 1508 1509
2331 2054 2073 1197 2401 2402 130 2403 2404 2405 2406 2407 0 2408 2409 2410 177 2411 2412 66 177 178 73 332 2413 2188 2153 2154 2414 2415 2416 1173 860 861 862 863 864 496 2417 1653 2373 2333 2244 2374 2418 1372 628 937 2012 2160 176 0 0 1516 424 425 504 427 251 168 1290 579 1048 2419 379 380 381 382 2420 2421 1624 322 1740 1265 2422 2423 831 831 2424 322 1740 238 238 1164 539 540 2425 51 226 900 2160 2426 643 1483 1484 1485 1486 1487 466 467 468 2427 2428 73 2429 2430 2431 141 2432 398 396 399 1189 1441 1664 1665 1265 1266 1754 1715 47 2433 2278 2279 421 1714 1715 2281 2434 2435 2436 2437 2438 66 2319 2439 1283 2440 1562 1563 1564
2371 83 2133 2441 2442 2443 2444 2403 918 2445 588 0 0 84 2446 2410 76 76 2403 2447 84 354 1267 1516 2448 380 2188 2189 2449 26 2450 1234 921 922 923 924 925 1496 2451 2452 2065 2333 2334 2295 2337 2094 937 2012 2012 248 2453 0 0 248 487 2266 489 490 163 172 1099 1100 1101 2454 417 418 419 420 421 404 1624 406 367 329 330 2455 245 328 2455 245 2094 937 2456 2308 586 587 143 2457 281 282 545 2458 726 1546 1547 1548 1549 1550 515 627 628 535 2459 1267 2460 2461 2462 2463 970 1165 1166 1167 2464 1505 1659 1660 1383 1318 1714 1382 47 2465 354 495 496 1707 2399 2466 1108 2399 2466 1707 66 2319 1108 66 2467 2468 1613 1614 1615
252 2469 2470 1479 2471 1570 281 212 1345 2472 593 0 0 1074 64 2473 711 637 637 2446 2474 711 340 2475 249 250 2476 2213 2477 2478 2479 2480 2480 2481 2482 2480 2480 2483 2484 2485 2373 2373 2333 2337 2159 937 2160 248 248 2486 2487 0 0 2486 1516 538 539 540 2425 2488 2489 2490 2491 2492 585 481 482 483 484 465 1624 467 468 2493 2494 81 77 1437 2094 2094 937 248 727 683 684 685 686 687 1730 900 2160 2426 643 1422 1423 1424 1425 1426 464 493 341 711 980 2495 2496 2497 2498 136 795 1224 1225 1226 2499 1713 1789 901 1249 1250 2500 342 47 2501 238 265 666 0 0 2399 2466 2399 2466 1844 117 2502 66 2503 932 1535 899 2253 691
396 1319 1368 588 2504 1345 2505 649 2506 84 2507 0 0 1176 2508 2509 2510 2511 2510 2475 249 2512 2513 2514 299 300 2254 952 953 2515 2410 1578 1579 2516 2517 2518 2485 2519 2520 2521 2417 1653 2373 2522 937 2012 2160 176 176 338 110 0 0 248 584 585 682 683 1535 899 1558 1535 899 1558 684 691 2379 856 856 2380 1624 627 628 2523 2524 2525 2094 2094 2094 937 2418 110 563 1750 838 731 2526 2527 2528 2529 2530 110 198 1483 1484 1485 1486 1487 2531 2532 2533 2534 2535 2049 2113 352 353 184 643 52 2536 2537 2538 2166 2167 951 428 429 2539 864 837 2540 570 1034 113 0 0 291 28 289 244 1887 86 16 2541 117 496 17 2541 88 88
963 964 2542 2543 2544 918 2504 588 2545 1074 1673 0 0 499 331 2546 2510 2547 2548 2549 809 211 2550 2551 2003 2134 2135 948 2552 2242 2410 2553 2554 2555 2556 2522 2557 81 81 2557 2519 2520 2557 2519 2558 1378 2559 2560 2561 340 52 0 0 2486 168 646 647 2562 2563 2564 2565 2566 590 2567 811 2001 399 775 776 569 1624 493 341 20 2568 2569 2159 2094 937 2160 2570 52 810 2571 106 451 878 536 238 239 240 52 51 1546 1547 1548 1549 1550 283 733 734 2534 489 504 2148 395 394 358 815 2572 487 83 1189 643 2573 2574 2575 2576 2577 2578 2579 2580 2439 265 0 0 0 0 324 1963 1964 2581 2581 17 18 2581 116 117 18 2581 324
1572 1573 1574 1575 1034 2582 2542 593 2583 1176 2584 0 0 2585 2586 932 684 684 691 691 856 692 859 2587 1120 119 120 2588 1232 2134 2410 1249 1250 2557 971 2519 2520 2589 2519 2520 1984 2472 778 2455 130 2590 2591 2592 2593 835 810 0 0 2593 836 2594 838 2595 2596 2597 2528 2529 2598 110 198 230 272 839 840 841 1624 2599 2600 71 2601 1437 2094 937 2012 248 248 399 110 563 564 878 1206 2602 2603 932 684 685 686 1546 1547 1548 1549 1550 904 1014 1015 1016 539 2113 353 447 448 449 948 536 1516 154 1345 726 2185 2604 755 756 757 2605 2606 879 2607 2501 113 0 0 0 0 0 87 88 1727 496 1707 2608 3 637 324 114 0
2609 2610 1622 593 1283 2611 2584 2612 2613 84 1702 0 0 2614 2615 2616 1090 83 2585 2617 2135 2473 2134 2135 2618 2135 2619 952 953 2134 2473 428 429 2519 2136 2620 130 2621 2522 2557 2522 2557 130 2549 2622 643 340 52 2623 2624 2623 0 0 2593 643 340 52 2625 2626 536 238 239 240 52 51 226 900 2627 2628 903 1624 2629 2630 20 2568 2094 937 2160 248 2264 2264 2571 563 110 563 110 110 563 26 314 315 316 2631 1483 1484 1485 1486 1487 954 1068 1069 1070 352 2148 395 2208 2209 450 1285 84 2632 238 1345 467 535 584 2105 2106 1727 2218 2633 711 2467 1176 113 0 0 0 2634 801 1880 1881 16 2541 88 17 17 18 88 324 114
2635 2636 2637 2638 3 637 1702 2639 1776 1074 2640 0 0 1090 1074 2641 2585 1090 1090 2617 2642 932 898 2643 2644 686 687 2645 2645 2645 2646 2647 2648 2649 2650 2651 2652 2653 2519 2520 2519 2520 2654 2655 872 49 50 51 873 286 2656 0 0 2623 2657 485 2623 2658 1206 2602 280 281 282 283 284 107 950 951 952 953 2170 339 2659 2186 2660 937 2160 2160 176 2661 2661 563 810 52 810 52 52 616 2662 2663 2664 2665 356 1546 1547 1548 1549 1550 1013 1118 1119 489 526 527 528 2666 810 694 2532 2533 2667 2260 2668 963 2669 2670 170 171 16 2303 2671 666 666 0 0 0 0 801 801 1880 117 17 2672 2673 143 163 81 82 83 2432 666
0 0 2674 2675 2676 2677 2640 2678 2679 1176 2584 0 0 1075 1176 2614 1176 2680 2681 1345 75 2585 83 2330 499 499 628 73 2682 2683 1183 2684 2685 2686 2230 709 2687 2228 2229 2226 2228 2228 2229 2226 2230 709 2201 2231 2227 2201 2231 0 0 2688 2689 2688 2688 2690 2691 2692 26 314 315 2597 283 733 734 842 281 2693 1999 1997 1998 671 671 1998 2694 1088 815 810 52 616 812 810 812 127 514 515 2695 2696 539 1206 2602 1483 1484 1485 1486 1487 1117 1050 2572 2632 578 579 580 2697 399 775 902 903 2698 2699 2700 2701 2702 2669 20 21 2703 265 2704 0 0 0 0 2634 801 2705 1963 1964 2581 178 2706 2707 2708 338 125 126 2377 970 1165
0 0 2143 1340 1341 2507 2680 2681 1948 1673 1702 0 0 2641 2585 1090 1074 1340 2109 2709 203 25 2585 84 74 75 26 247 1429 776 2710 2711 2712 401 2713 2714 2715 141 2521 2521 324 2716 2717 2622 340 52 2623 2718 873 2719 2720 0 0 2721 2722 2260 2662 878 2723 2724 2662 2725 2726 2662 904 1014 1015 1016 2012 2727 2728 2729 2730 0 0 2731 2732 2732 558 812 810 694 127 514 1206 2602 280 2603 932 683 684 685 686 1546 1547 1548 1549 1550 110 198 230 795 2733 639 640 2734 272 839 2735 878 2736 2669 2737 2738 2702 2702 71 72 113 2739 113 0 0 87 801 801 1880 879 2740 1280 2608 81 2741 2742 2743 732 168 169 167 795 1224
0 0 0 1388 86 1673 1340 2109 1235 1074 2640 0 0 2614 84 2641 2585 1034 711 1842 389 390 549 25 3 637 26 9 10 628 73 2744 2745 2521 627 2746 141 2521 2445 2747 2521 627 2746 1879 198 2748 2749 2750 51 2749 2751 0 0 1885 116 2752 2753 2754 1879 2755 2695 2756 2757 282 954 1068 1069 1070 248 1116 2758 2730 2729 0 0 198 811 2571 876 1088 812 558 812 643 110 2759 2760 314 82 2761 2762 354 130 1373 1374 1375 1376 1377 52 51 226 900 2763 2764 2765 2766 900 901 51 2767 2768 2702 2769 2770 2771 2702 170 171 2772 1654 113 0 666 1653 1880 1881 16 2773 2740 1059 618 143 168 169 167 2774 172 163 172 2775 1226
0 0 0 2634 801 879 1034 711 2776 2585 2680 0 0 1090 1074 2614 84 2614 66 918 375 376 377 390 2777 2677 2330 74 75 26 247 0 0 77 1456 1457 2778 77 1437 2309 77 1456 937 119 2779 2780 2781 2782 2783 2784 2722 0 0 2260 1305 2260 2754 2785 2786 2787 2788 2789 2790 2790 1013 1118 1119 48 281 2728 2729 1103 563 0 0 51 198 110 198 876 1088 876 1088 815 52 616 514 2663 76 2791 2792 2793 2794 1422 1423 1424 1425 1426 110 198 230 272 839 840 198 230 272 901 51 2767 2768 2702 2769 2770 1855 2795 20 21 496 1707 666 0 1747 496 2249 2050 1754 2796 2672 2673 143 163 172 163 172 2797 230 272 2798 1328 2799
0 2634 801 88 1432 1284 1283 76 796 84 1340 0 0 81 1236 1090 2680 2681 1286 2506 411 412 413 414 2800 86 2680 2801 1496 2802 88 0 0 2521 2803 2332 2065 2333 2094 2132 1977 937 2174 211 198 2748 2751 2804 2805 2806 2807 0 0 1085 1138 51 873 286 211 2808 2809 876 2810 52 2623 2718 873 2811 2812 2813 2814 224 2815 0 0 284 51 50 51 149 558 812 283 733 734 842 2816 2087 95 2817 2818 2819 1267 1483 1484 1485 1486 1487 2820 1558 1559 684 685 686 2821 2822 2823 2824 2825 2826 2827 2392 850 1730 2771 2828 71 72 496 1716 1717 1909 467 468 2672 1964 2741 1910 2829 2707 338 338 110 52 811 2830 2831 2832 2833 2834 2835
801 801 1880 2355 2836 2837 2838 711 879 1284 1283 0 0 1881 16 81 1340 2109 2680 2839 1311 476 477 2840 0 0 2841 2840 523 2842 2843 0 0 77 929 331 2373 2373 937 2174 2175 2176 119 120 2844 2845 129 2846 2847 2848 26 0 0 1192 779 1192 1193 2849 2850 2851 2852 2853 2854 2703 265 2704 224 224 2855 2856 2857 2858 1240 0 0 198 2859 2860 284 107 450 451 417 418 419 420 1156 376 377 378 2861 2862 2863 1546 1547 1548 1549 1550 356 357 358 878 558 812 643 52 2536 375 376 377 2864 2865 2866 2867 2868 2869 170 171 468 1753 1286 1285 2741 1754 2796 2740 1280 1090 2741 2742 2743 732 733 734 842 249 250 2870 2871 2872 2873
1496 2874 1077 16 1284 2875 2876 2877 2878 2837 2838 0 0 1910 1984 76 1034 711 1284 1283 2641 2879 2841 2880 2881 2882 2883 2884 575 2885 2886 0 0 2373 711 496 2417 1653 2887 2888 2889 2845 68 69 70 2890 2889 2891 2892 2893 558 0 0 2894 2748 2895 2896 2897 2898 2899 224 2900 2856 113 2901 113 2902 2903 113 2901 62 0 2904 0 0 51 878 558 812 149 358 52 480 481 482 483 2905 412 413 414 1075 1176 2906 1373 1374 1375 1376 1377 253 254 397 558 876 1088 815 2572 2632 411 412 413 414 2907 489 2908 302 433 20 21 1171 1171 1103 563 493 1090 711 980 2673 143 459 2909 250 904 1014 1015 1016 299 300 2910 939 2911 534
2912 1075 1176 13 2354 2355 2913 16 2887 2888 2914 0 0 1717 796 84 2877 776 2837 2838 831 2356 1443 1444 1445 1446 2915 2801 2916 0 86 0 0 2417 76 2917 499 496 2417 2917 499 2887 119 120 2918 256 253 249 250 55 876 0 0 1504 2751 2896 2356 1443 1444 1445 2919 2920 2921 0 0 113 2920 2922 1815 0 0 0 86 0 0 284 558 876 1088 357 878 2572 102 531 532 533 2923 476 477 478 1432 2098 86 1422 1423 1424 1425 1426 184 302 433 451 252 1135 948 230 795 1311 476 477 478 2693 2924 2925 2215 2926 1272 673 674 976 2927 2924 2694 2533 2534 2535 2707 2708 51 2928 300 954 1068 1069 1070 2929 2930 2931 2932 2933 2934
2935 2936 16 77 864 112 2012 2937 2836 2938 2877 0 0 1286 76 1284 16 2887 2888 2843 1283 2400 1507 1508 1509 1510 0 0 0 0 2840 0 0 637 1337 2939 2940 2521 2445 118 2941 2942 2943 2944 2945 2946 2947 299 300 451 252 0 0 2756 2894 2895 2400 1507 1508 1509 2948 0 2949 2950 0 0 0 113 2951 0 0 0 86 0 0 51 51 106 52 812 558 876 1088 51 106 52 878 1285 1090 1074 1075 1176 77 1483 1484 1485 1486 1487 2817 1285 2632 1479 584 1395 1285 84 2632 1340 2952 117 1090 1197 2953 2954 73 2955 755 756 2956 2957 2958 2959 902 903 2831 534 535 2960 2961 2962 2963 1013 1118 1119 48 2964 1122 778 2965 2966 2967
860 861 862 863 864 2968 2969 2970 2971 2355 2355 0 0 2789 1504 2837 2838 1075 1176 2098 66 2440 1562 1563 1564 1565 1348 2972 87 2840 1727 0 0 117 1541 2973 2974 188 2472 2975 2976 2977 2978 2979 2980 2981 2982 2983 1393 2984 2985 0 0 2789 1504 2853 2440 1562 1563 1564 1565 2986 2987 2988 2989 0 0 2990 799 1815 87 88 1727 0 0 558 558 876 876 1088 51 106 1103 563 584 2572 487 1394 81 1236 87 88 1727 1546 1547 1548 1549 1550 1393 1074 2087 2087 84 2632 860 861 862 863 864 2968 2969 2970 2971 2355 2355 1253 2991 2992 1327 2993 1327 1328 106 52 811 2571 2994 2995 2996 2997 2998 2999 3000 901 3001 3002 3003 1709 3004 3005 3006
921 922 923 924 3007 896 3008 3009 3010 3011 3012 0 0 3011 3012 3012 3011 1616 3013 3014 3015 2468 1613 1614 1615 1616 3013 3014 3015 1881 16 0 0 3016 1593 3017 2539 3018 3019 3008 3009 3020 3021 3022 3023 3024 3025 3026 3027 3028 3029 0 0 3030 3031 3032 3033 1613 1614 1615 3034 3035 3036 2110 3037 3038 2110 3039 3040 3041 3042 3043 3044 0 0 3045 3025 51 106 52 252 3046 3047 3048 3049 536 1516 3050 3051 3052 3005 3006 3053 1373 1374 1375 1376 1377 3054 3009 3055 3056 3057 1234 921 922 923 924 3007 896 3058 3054 3009 3055 3059 3060 71 72 106 2539 3061 83 3062 3063 3064 3047 3048 3065 3066 3062 3067 3068 3069 3070 3071 3072 3073 3074 3075 3076 3077
3078 3079 3080 3081 3082 3083 3084 3085 3086 3087 3088 0 0 3089 3090 3091 3092 3093 3094 3095 3096 3097 3098 3099 3100 3101 3102 3103 3104 3105 3106 0 0 3107 3108 3109 3110 3111 3112 3113 3114 3115 3115 3116 3117 3118 3119 3120 3121 3122 3115 0 0 3123 3124 3125 3126 3127 3128 3129 3056 3057 3130 3054 3009 3055 3059 3060 3131 3132 3133 3134 3135 0 0 3109 3110 3111 3112 3113 3114 3115 3116 3117 3118 3119 3136 3137 3138 3139 3076 3077 3140 1422 1423 1424 1425 1426 3141 3142 3143 3144 3145 3146 3147 3148 3080 3081 3077 3140 3149 3150 3133 3133 3133 3133 295 296 3109 3110 3111 3112 3113 3114 3115 3115 3116 3117 3118 3119 3120 3121 3122 3151 3152 3153 3154 3155 3156 3149 3157
3158 3159 3160 3161 3162 3163 3164 3165 3166 3115 3167 3168 3169 3170 3171 3171 3172 3173 3174 3175 3176 3177 3178 3133 3133 3133 3133 3133 3133 3133 3133 3179 3180 3181 3182 3183 3184 3185 3186 3187 3188 3115 3189 3190 3191 3192 3193 3194 3195 3196 3115 3197 3198 3199 3199 3200 3125 3201 3202 3203 3204 3149 3205 3150 3133 3133 3133 3133 3133 3133 3133 3133 3206 3207 3208 3183 3184 3185 3186 3187 3188 3189 3190 3191 3192 3209 3210 3091 3211 3212 3213 3214 3215 1483 1484 1485 1486 1487 3133 3216 3217 3218 3149 3219 3220 3133 3221 3222 3223 3224 3224 3149 3150 3133 3133 3225 3226 3227 3183 3184 3185 3186 3187 3188 3193 3189 3190 3191 3192 3193 3194 3195 3196 3115 3228 3229 3115 3230 3231 3232 3233
3234 3235 3236 3237 3238 3239 3166 3115 3115 3115 3115 3115 3115 3115 3199 3240 3241 3242 3213 3243 3244 3245 3246 3247 3247 3248 3249 3250 3251 3252 3253 3254 3255 3256 3257 3258 3164 3165 3259 3259 3115 3115 3151 3260 3261 3262 3263 3264 3265 3266 3267 3199 3268 3269 3270 3271 3272 3273 3274 3256 3244 3245 3246 3247 3247 3247 3247 3247 3247 3247 3247 3254 3275 3276 3277 3278 3279 3165 3259 3115 3115 3151 3260 3261 3262 3263 3236 3280 3281 3282 3283 3115 3115 3284 3285 3286 3287 3288 3247 3289 3290 3291 3292 3246 3247 3247 3247 3247 3289 3290 3291 3292 3246 3293 3294 3295 3276 3277 3115 3115 3115 3115 3115 3115 3115 3151 3260 3261 3262 3263 3264 3265 3266 3267 3115 3115 3296 3297 3265 3298 3299
