1 1 16
6 384 176 64 72 0 0 0
16 0 78 832 20 2 0 0
16 42 148 108 8 2 0 0
16 258 148 102 8 2 0 0
16 468 148 108 8 2 0 0
16 678 148 108 8 2 0 0
17 0 448 35 448 2 0 0
17 795 448 37 448 2 0 0
24 -68 415 128 250 2 0 0
24 60 415 128 250 2 0 0
24 188 415 128 250 2 0 0
24 316 415 128 250 2 0 0
24 444 415 128 250 2 0 0
24 572 415 128 250 2 0 0
24 700 415 128 250 2 0 0
24 928 415 128 250 2 0 0